POST /auth/login  
http://localhost:8080/yapping/api/auth/login
{
    "username":"nghia3",
    "password":"12345678"
}
{
    "access_token": "eyJhbGciOiJIUzI1NiJ9.eyJzdWIiOiJuZ2hpYTMiLCJpYXQiOjE3NDc2NDIwOTQsImV4cCI6MTc0NzY0Mjk5NH0.Q9QxElZLK3ClbEDzW41mo4HHK30Kfa6zcLerDw5unlQ",
    "refresh_token": "eyJhbGciOiJIUzI1NiJ9.eyJzdWIiOiJuZ2hpYTMiLCJpYXQiOjE3NDc2NDIwOTQsImV4cCI6MTc0ODI0Njg5NH0.KyTn7QLef5WPYnKiYH86EE4-6QcdOIYo4KB1uYhm3H4",
    "user_id": 8,
    "roles": [
        "USER"
    ]
}

POST /users/register
http://localhost:8080/yapping/api/users/register
{
    "username": "nghia4",
    "email": "nghia4@gmail.com",
    "password": "12345678",
    "fullName": "Nghia",
    "roles": [
        {"name": "USER"}
    ]
}

GET /users/me //Authorization: lấy thông tin user
http://localhost:8080/yapping/api/users/me


==============================================================
Bài viết
POST: tạo bài viết kèm ảnh hoặc video
http://localhost:8080/yapping/api/posts-with-media

form-data
content
visibility : PUBLIC, FOLLOWERS_ONLY, PRIVATE
files : danh sách file
json trả về
{
    "status": 201,
    "success": true,
    "message": "Đã tạo bài đăng với media thành công",
    "data": {
        "id": 8,
        "user": {
            "id": 8,
            "username": "nghia3",
            "fullName": "Nghia",
            "profilePicture": "/uploads/profile-pictures/1747724495181_sach-khoa-hoc.png"
        },
        "parentPostId": null,
        "content": "nội dung bài đăng ",
        "visibility": "PUBLIC",
        "likeCount": null,
        "commentCount": null,
        "repostCount": null,
        "quoteCount": null,
        "createdAt": "2025-05-21T08:41:16.267126Z",
        "updatedAt": "2025-05-21T08:41:16.267126Z",
        "post_type": null,
        "media": [
            {
                "id": 3,
                "postId": 8,
                "userId": 8,
                "mediaUrl": "/uploads/media/8_1747816876271_bao-in.png",
                "mediaType": "IMAGE",
                "sortOrder": 0,
                "createdAt": "2025-05-21T08:41:16.278094700Z"
            },
            {
                "id": 4,
                "postId": 8,
                "userId": 8,
                "mediaUrl": "/uploads/media/8_1747816876278_sach-ky-thuat.png",
                "mediaType": "IMAGE",
                "sortOrder": 1,
                "createdAt": "2025-05-21T08:41:16.279092600Z"
            }
        ]
    }
}
---------------------------------------------
POST tạo bài viết đơn
http://localhost:8080/yapping/api/posts
{
  "content": "Updated content for my  post6!",
  "visibility": "PUBLIC",
  "parentPostId": null,
  "post_type":"RESOURCE"
}
json tra về
{
    "status": 201,
    "success": true,
    "message": "Đã tạo bài đăng thành công",
    "data": {
        "id": 11,
        "user": {
            "id": 1,
            "username": "john_doe",
            "fullName": "John Doe",
            "profilePicture": null
        },
        "parentPostId": null,
        "content": "Updated content for my  post6!",
        "visibility": "PUBLIC",
        "likeCount": null,
        "commentCount": null,
        "repostCount": null,
        "quoteCount": null,
        "createdAt": "2025-05-21T09:24:59.779722Z",
        "updatedAt": "2025-05-21T09:24:59.779722Z",
        "post_type": "RESOURCE",
        "media": null
    }
}
----------------------------------------------
GET: lấy bài post công khai
http://localhost:8080/yapping/api/posts?page=0&size=5
json trả về
{
    "status": 200,
    "success": true,
    "message": "Đã lấy danh sách bài đăng công khai thành công",
    "data": {
        "content": [
            {
                "id": 19,
                "user": {
                    "id": 8,
                    "username": "nghia3",
                    "fullName": "Nghia",
                    "profilePicture": "/uploads/profile-pictures/1747724495181_sach-khoa-hoc.png"
                },
                "parentPostId": null,
                "content": "test media ",
                "visibility": "PUBLIC",
                "likeCount": 1,
                "commentCount": 0,
                "repostCount": 0,
                "quoteCount": 0,
                "createdAt": "2025-05-29T19:10:13Z",
                "updatedAt": "2025-05-30T10:28:29Z",
                "post_type": "TEXT",
                "media": [
                    {
                        "id": 17,
                        "mediaUrl": "/uploads/media/8_1748545812549_yapping.png",
                        "mediaType": "IMAGE",
                        "sortOrder": 0,
                        "createdAt": "2025-05-29T19:10:13Z"
                    },
                    {
                        "id": 18,
                        "mediaUrl": "/uploads/media/8_1748545812563_de3.jpg",
                        "mediaType": "IMAGE",
                        "sortOrder": 1,
                        "createdAt": "2025-05-29T19:10:13Z"
                    },
                    {
                        "id": 19,
                        "mediaUrl": "/uploads/media/8_1748545812567_6652872862792.mp4",
                        "mediaType": "VIDEO",
                        "sortOrder": 2,
                        "createdAt": "2025-05-29T19:10:13Z"
                    },
                    {
                        "id": 20,
                        "mediaUrl": "/uploads/media/8_1748545812573_ktvxld1.jpg",
                        "mediaType": "IMAGE",
                        "sortOrder": 3,
                        "createdAt": "2025-05-29T19:10:13Z"
                    }
                ],
                "resources": null
            },
            {
                "id": 18,
                "user": {
                    "id": 8,
                    "username": "nghia3",
                    "fullName": "Nghia",
                    "profilePicture": "/uploads/profile-pictures/1747724495181_sach-khoa-hoc.png"
                },
                "parentPostId": null,
                "content": "test media ",
                "visibility": "PUBLIC",
                "likeCount": 1,
                "commentCount": 0,
                "repostCount": 0,
                "quoteCount": 0,
                "createdAt": "2025-05-29T19:00:47Z",
                "updatedAt": "2025-06-02T06:14:38Z",
                "post_type": "TEXT",
                "media": [
                    {
                        "id": 14,
                        "mediaUrl": "/uploads/media/8_1748545247174_yapping.png",
                        "mediaType": "IMAGE",
                        "sortOrder": 0,
                        "createdAt": "2025-05-29T19:00:47Z"
                    },
                    {
                        "id": 15,
                        "mediaUrl": "/uploads/media/8_1748545247191_de3.jpg",
                        "mediaType": "IMAGE",
                        "sortOrder": 1,
                        "createdAt": "2025-05-29T19:00:47Z"
                    },
                    {
                        "id": 16,
                        "mediaUrl": "/uploads/media/8_1748545247194_6652872862792.mp4",
                        "mediaType": "VIDEO",
                        "sortOrder": 2,
                        "createdAt": "2025-05-29T19:00:47Z"
                    }
                ],
                "resources": null
            },
            {
                "id": 17,
                "user": {
                    "id": 8,
                    "username": "nghia3",
                    "fullName": "Nghia",
                    "profilePicture": "/uploads/profile-pictures/1747724495181_sach-khoa-hoc.png"
                },
                "parentPostId": null,
                "content": "test media ",
                "visibility": "PUBLIC",
                "likeCount": 0,
                "commentCount": 0,
                "repostCount": 0,
                "quoteCount": 0,
                "createdAt": "2025-05-29T18:39:46Z",
                "updatedAt": "2025-05-29T18:39:46Z",
                "post_type": "TEXT",
                "media": [
                    {
                        "id": 11,
                        "mediaUrl": "/uploads/media/8_1748543985845_yapping.png",
                        "mediaType": "IMAGE",
                        "sortOrder": 0,
                        "createdAt": "2025-05-29T18:39:46Z"
                    },
                    {
                        "id": 12,
                        "mediaUrl": "/uploads/media/8_1748543985896_ChatGPT Image 22_56_58 2 thg 4, 2025.png",
                        "mediaType": "IMAGE",
                        "sortOrder": 1,
                        "createdAt": "2025-05-29T18:39:46Z"
                    },
                    {
                        "id": 13,
                        "mediaUrl": "/uploads/media/8_1748543985914_de3.jpg",
                        "mediaType": "IMAGE",
                        "sortOrder": 2,
                        "createdAt": "2025-05-29T18:39:46Z"
                    }
                ],
                "resources": null
            },
            {
                "id": 16,
                "user": {
                    "id": 8,
                    "username": "nghia3",
                    "fullName": "Nghia",
                    "profilePicture": "/uploads/profile-pictures/1747724495181_sach-khoa-hoc.png"
                },
                "parentPostId": null,
                "content": "test media ",
                "visibility": "PUBLIC",
                "likeCount": 0,
                "commentCount": 0,
                "repostCount": 0,
                "quoteCount": 0,
                "createdAt": "2025-05-29T17:48:26Z",
                "updatedAt": "2025-05-29T17:48:26Z",
                "post_type": "TEXT",
                "media": [
                    {
                        "id": 9,
                        "mediaUrl": "/uploads/media/8_1748540906399_yapping.png",
                        "mediaType": "IMAGE",
                        "sortOrder": 0,
                        "createdAt": "2025-05-29T17:48:26Z"
                    },
                    {
                        "id": 10,
                        "mediaUrl": "/uploads/media/8_1748540906411_ChatGPT Image 22_56_58 2 thg 4, 2025.png",
                        "mediaType": "IMAGE",
                        "sortOrder": 1,
                        "createdAt": "2025-05-29T17:48:26Z"
                    }
                ],
                "resources": null
            },
            {
                "id": 15,
                "user": {
                    "id": 8,
                    "username": "nghia3",
                    "fullName": "Nghia",
                    "profilePicture": "/uploads/profile-pictures/1747724495181_sach-khoa-hoc.png"
                },
                "parentPostId": null,
                "content": "test thông báo và mention cho @nghia3",
                "visibility": "PUBLIC",
                "likeCount": 2,
                "commentCount": null,
                "repostCount": null,
                "quoteCount": null,
                "createdAt": "2025-05-22T11:29:12Z",
                "updatedAt": "2025-06-02T06:14:03Z",
                "post_type": "TEXT",
                "media": null,
                "resources": null
            }
        ],
        "pageable": {
            "pageNumber": 0,
            "pageSize": 5,
            "sort": {
                "empty": false,
                "sorted": true,
                "unsorted": false
            },
            "offset": 0,
            "paged": true,
            "unpaged": false
        },
        "last": false,
        "totalPages": 2,
        "totalElements": 8,
        "size": 5,
        "number": 0,
        "sort": {
            "empty": false,
            "sorted": true,
            "unsorted": false
        },
        "first": true,
        "numberOfElements": 5,
        "empty": false
    }
}
----------------------------------------------
GET: lấy bài post đơn lẻ
http://localhost:8080/yapping/api/posts/1
=========================================
media
GET
http://localhost:8080/yapping/api/media/3
json trả về
{
    "status": 200,
    "success": true,
    "message": "Đã lấy thông tin media thành công",
    "data": {
        "id": 3,
        "postId": 8,
        "userId": 8,
        "mediaUrl": "/uploads/media/8_1747816876271_bao-in.png",
        "mediaType": "IMAGE",
        "sortOrder": 0,
        "createdAt": "2025-05-21T08:41:16Z"
    }
}